module github.com/hellt/yangpath

go 1.13

require (
	github.com/mitchellh/go-homedir v1.1.0
	github.com/openconfig/gnmi v0.0.0-20200617225440-d2b4e6a45802 // indirect
	github.com/openconfig/goyang v0.0.0-20200803193518-78bac27bdff1
	github.com/sirupsen/logrus v1.6.0
	github.com/spf13/cobra v1.0.0
	github.com/spf13/viper v1.7.1
)
